VHDL/full-adder/op.vcd
$date
  Tue Mar 25 01:54:24 2014
$end
$version
  GHDL v0
$end
$timescale
  1 fs
$end
$var reg 1 ! a0 $end
$var reg 1 " b0 $end
$var reg 1 # cin $end
$var reg 1 $ s0 $end
$var reg 1 % c0 $end
$scope module fulladder $end
$var reg 1 & a $end
$var reg 1 ' b $end
$var reg 1 ( cin $end
$var reg 1 ) sum $end
$var reg 1 * carry $end
$var reg 1 + sum1 $end
$var reg 1 , carry1 $end
$var reg 1 - carry2 $end
$scope module ha1 $end
$var reg 1 . a $end
$var reg 1 / b $end
$var reg 1 0 sum $end
$var reg 1 1 carry $end
$upscope $end
$scope module ha2 $end
$var reg 1 2 a $end
$var reg 1 3 b $end
$var reg 1 4 sum $end
$var reg 1 5 carry $end
$upscope $end
$upscope $end
$enddefinitions $end
#0
0!
0"
0#
0$
0%
0&
0'
0(
0)
0*
0+
0,
0-
0.
0/
00
01
02
03
04
05
#1000000
1#
1$
1(
1)
13
14
#2000000
1"
0#
1$
1'
0(
1)
1+
1/
10
12
03
14
#3000000
1#
0$
1%
1(
0)
1*
1-
13
04
15
#4000000
1!
0"
0#
1$
0%
1&
0'
0(
1)
0*
0-
1.
0/
03
14
05
#5000000
1#
0$
1%
1(
0)
1*
1-
13
04
15
#6000000
1"
0#
0$
1'
0(
0)
0+
1,
0-
1/
00
11
02
03
04
05
#7000000
1#
1$
1(
1)
13
14
